// Jest Snapshot v1, https://goo.gl/fbAQLP

exports[`Button With Icon should be rendered 1`] = `
<button
  class="button button--has-icon "
  type="button"
>
  <i
    class="material-icons icon "
  >
    test
  </i>
</button>
`;
